<svg
  xmlns="http://www.w3.org/2000/svg"
  class="svg svg--feather feather-filter" viewBox="0 0 24 24"
  fill="none"
  stroke="currentColor"
  stroke-width="1"
  stroke-linecap="round"
  stroke-linejoin="round"
>
  <polygon points="22 3 2 3 10 12.46 10 19 14 21 14 12.46 22 3" />
</svg>
