<svg
  class="svg svg--feather feather-smile" viewBox="0 0 24 24"
  xmlns="http://www.w3.org/2000/svg"
  fill="none"
  stroke="currentColor"
  stroke-width="1"
  stroke-linecap="round"
  stroke-linejoin="round"
>
  <circle cx="12" cy="12" r="10" />
  <path d="M8 14s1.5 2 4 2 4-2 4-2" />
  <line x1="9" y1="9" x2="9.01" y2="9" />
  <line x1="15" y1="9" x2="15.01" y2="9" />
</svg>
