<svg
  class="svg svg--feather feather-trello" viewBox="0 0 24 24"
  xmlns="http://www.w3.org/2000/svg"
  fill="none"
  stroke="currentColor"
  stroke-width="1"
  stroke-linecap="round"
  stroke-linejoin="round"
>
  <rect x="3" y="3" width="18" height="18" rx="2" ry="2" />
  <rect x="7" y="7" width="3" height="9" />
  <rect x="14" y="7" width="3" height="5" />
</svg>
